﻿// ************************************************************************** //
//                                SERVICES
// ************************************************************************** //
ChangeServiceConfig

// ************************************************************************** //
//                                EVENTLOG
// ************************************************************************** //
EvtOpenChannelConfig
EvtSetChannelConfigProperty
EVT_VARIANT


// CreateFile
// FILE_SHARE_MODE
// SECURITY_ATTRIBUTES
// FILE_CREATION_DISPOSITION
// FILE_FLAGS_AND_ATTRIBUTES